User Directions · OceanRobots.jl
…
Info Given PlutoUI was explicitly requested, output will be shown live 
┌ Warning: Module AbstractPlutoDingetjes with build ID fafbfcfd-173d-a3d6-30b1-29e23d9c6b0a is missing from the cache.
│ This may mean AbstractPlutoDingetjes [6e696c72-6542-2067-7265-42206c756150] does not support precompilation but is imported by a module that does.
└ @ Base loading.jl:2541
    795.2 ms  ? PlutoUI
  0 dependencies successfully precompiled in 2 seconds. 42 already precompiled.
  1 dependencies failed but may be precompilable after restarting julia
  1 dependency had output during precompilation:
┌ PlutoUI
│  [Output was shown above]
└
┌ Warning: Module AbstractPlutoDingetjes with build ID fafbfcfd-173d-a3d6-30b1-29e23d9c6b0a is missing from the cache.
│ This may mean AbstractPlutoDingetjes [6e696c72-6542-2067-7265-42206c756150] does not support precompilation but is imported by a module that does.
└ @ Base loading.jl:2541
20092×2 DataFrame
   Row │ folder  wmo
       │ Any     Any
───────┼─────────────────
     1 │ aoml    13857
     2 │ aoml    13858
     3 │ aoml    13859
     4 │ aoml    15819
     5 │ aoml    15820
     6 │ aoml    15851
     7 │ aoml    15852
     8 │ aoml    15853
   ⋮   │   ⋮        ⋮
 20086 │ nmdis   2901627
 20087 │ nmdis   2901628
 20088 │ nmdis   2901629
 20089 │ nmdis   2901630
 20090 │ nmdis   2901631
 20091 │ nmdis   2901632
 20092 │ nmdis   2901633
       20077 rows omitted┌ Warning: specifycing files_list here is deprecated
└ @ ArgoData ~/.julia/packages/ArgoData/BNZxz/src/data_structures.jl:181
…
